FIRST NAME,LAST NAME,AGE,PROFFESION,SALARY,TYPE
Edward,Nożycoręki,28,Killer,6000,F
Andrzej,Musioł,51,Plumber,3000,F
Hans,Christian,22,Painter,500,H
Jan,Brzechwa,96,Writer,600,H
Marian,Wąsaty,30,operator,2500,H
Anna ,Karenina,36,doctor,1000,F
Zenon,Podeszwa,67,emeryt,1200,F
Jurand,Zespychowa,18,newbie,4444,H
Marcin,Gut,29,programer,9999,H
Jurand,Spychów,40,Knight,4000,F
Tomek,Rafał,44,księgowy,6000,F
Kasia,Basia,88,kwiaciarka,3000,F
Ann,Someone,99,climber,5000,F
Kamil,Nowakowski,26,miner,4500,F
Geralt,Rivaldi,40,Witcher,1000,F
Zosia,Kowalska,20,kelnerka,2200,F
Halina,Krawczyk,46,gospodyni domowa,10,F
Marysia,Kowalska,55,shop assistance,2000,F
Mikołaj,Pyk,98,bus driver,3000,F
Krystyna,Wolna,32,assistance,3000,F
Zack,Sam,15,programmer,10000,H
Miłka,Nieswoja,28,treiner,2800,F
Emma,Thought,33,painter,15000,F
Robert,Kubica,33,rajdowiec,5000,F
Zenek,Martyniuk,55,discopolowiec,3000,F
Ula,Aga,57,kasjerka,2000,F
Fryderyk,Majchrzak,41,businessman,6500,F
Marian,Paździoch,65,handlarz ,2500,F
Adam,Małysz,30,sportsman,10000,F
Zenon,Stefek,35,unemployed,0,F
Kurcze,Noga,60,ornitolog,5000,H
Damian,Nowacki,57,piłkarz,100000,H
Herbert,Kutyba,66,wypalacz,3600,F
Janusz,Cebula,40,Budowlaniec,5000,F
Karyna,Burak,35,Kosmetyczka,2000,H
Sebastian,Maciejka,23,Rolnik,3000,F
Premier,Dernier,49,Metier,499.99,H
Marek,Talarek,36,Ksiądz,6666,F
Inga,Agni,29,Palindrom,1200,H
Antoni,Krajew,56,soldier,4000,F
Julian,Mlazgaty,74,Welder,5500,F
Tristana,Yordle,30,Gunslinger,10000,F
Tatiana,Iwaszkiewicz,24,kucharka,3254,H
Jaskier,Pankratz,25,Bard,100,F
Patryk,Cośtam,45,CEO,100000,F
Bodzio,Meble,20,Producent,20000,F
Stefan,Szczepan,33,Kierownik,200,F
Jaroslaw,Polskezbaw,10,Marzyciel,1600,F
Gall,Anonim,56,Pisarz,3000,F
Janek ,Sobieski,65,Rolnik,4000,F
Mieszko,Pierwszy,87,Księgowy,50,H
Kazik,Wielki,78,Malarz,1000,H
Bolek,Chrobry,40,Budowlaniec,6000,F
Krzysztof,Jezynazeszczecina,50,Szef,10000,H
Grzagorz ,Brzęczyszczykiewicz,45,Chrząszczy,1000,F
Johnny,Bravo,22,Mistrz,2000,F
Sherlock,Holmes,40,Detektyw,3000,F
John,Watson,42,Lekarz,2000,F